phils_cancer_workflow
…
Import

sample_info <- read_csv("sample_info (2).csv")

Rows: 1840 Columns: 29── Column specification ────────────────────────────────────────────────────────
Delimiter: ","
chr (27): DepMap_ID, cell_line_name, stripped_cell_line_name, CCLE_Name, ali...
dbl  (2): COSMICID, WTSI_Master_Cell_ID
ℹ Use `spec()` to retrieve the full column specification for this data.
ℹ Specify the column types or set `show_col_types = FALSE` to quiet this message.

sample_info

# A tibble: 1,840 × 29
   DepMap_ID  cell_line_name stripped_cell_li… CCLE_Name    alias COSMICID sex  
   <chr>      <chr>          <chr>             <chr>        <chr>    <dbl> <chr>
 1 ACH-000016 SLR 21         SLR21             SLR21_KIDNEY <NA>        NA <NA> 
 2 ACH-000032 MHH-CALL-3     MHHCALL3          MHHCALL3_HA… <NA>        NA Fema…
 3 ACH-000033 NCI-H1819      NCIH1819          NCIH1819_LU… <NA>        NA Fema…
 4 ACH-000043 Hs 895.T       HS895T            HS895T_FIBR… <NA>        NA Fema…
 5 ACH-000049 HEK TE         HEKTE             HEKTE_KIDNEY <NA>        NA <NA> 
 6 ACH-000051 TE 617.T       TE617T            TE617T_SOFT… <NA>        NA Fema…
 7 ACH-000064 SALE           SALE              SALE_LUNG    <NA>        NA Male 
 8 ACH-000068 REC-1          REC1              REC1_HAEMAT… <NA>        NA Male 
 9 ACH-000071 <NA>           HS706T            HS706T_BONE  <NA>        NA Fema…
10 ACH-000076 NCO2           NCO2              NCO2_HAEMAT… <NA>        NA Fema…
# … with 1,830 more rows, and 22 more variables: source <chr>, RRID <chr>,
#   WTSI_Master_Cell_ID <dbl>, sample_collection_site <chr>,
#   primary_or_metastasis <chr>, primary_disease <chr>, Subtype <chr>,
#   age <chr>, Sanger_Model_ID <chr>, depmap_public_comments <chr>,
#   lineage <chr>, lineage_subtype <chr>, lineage_sub_subtype <chr>,
#   lineage_molecular_subtype <chr>, default_growth_pattern <chr>,
#   model_manipulation <chr>, model_manipulation_details <chr>, …
…
